[
  {
    "ipc": true,
    "layer": "top",
    "mode": "dock",
    "position": "right",
    "modules-left": ["idle_inhibitor", "tray"],
    "idle_inhibitor": {
      "min-length": 3,
      "format": "{icon}",
      "tooltip": false,
      "timeout": 120,
      "format-icons": {
        "activated": "",
        "deactivated": ""
      }
    },
    "tray": {
      "min-length": 5,
      "icon-size": 50,
      "spacing": 15
    }
  }
]
